projects/counter/build_test/vlt_dump.vcd
$version Generated by VerilatedVcd $end
$timescale 1ps $end

 $scope module TOP $end
  $var wire  1 # clk $end
  $var wire  4 % out [3:0] $end
  $var wire  1 $ reset $end
  $scope module top $end
   $var wire  1 # clk $end
   $var wire  4 % out [3:0] $end
   $var wire  1 $ reset $end
  $upscope $end
 $upscope $end
$enddefinitions $end


#0
0#
0$
b0000 %
#1
1#
b0001 %
#2
0#
#3
1#
b0010 %
#4
0#
#5
1#
b0011 %
#6
0#
#7
1#
b0100 %
#8
0#
#9
1#
b0101 %
#10
0#
#11
1#
b0110 %
#12
0#
#13
1#
b0111 %
#14
0#
#15
1#
b1000 %
#16
0#
#17
1#
b1001 %
#18
0#
#19
1#
b1010 %
#20
0#
#21
1#
b1011 %
#22
0#
#23
1#
b1100 %
#24
0#
#25
1#
b1101 %
#26
0#
#27
1#
b1110 %
#28
0#
#29
1#
b1111 %
#30
0#
#31
1#
b0000 %
#32
0#
#33
1#
b0001 %
#34
0#
#35
1#
b0010 %
#36
0#
#37
1#
b0011 %
#38
0#
#39
1#
b0100 %
#40
0#
#41
1#
b0101 %
#42
0#
#43
1#
b0110 %
#44
0#
#45
1#
b0111 %
#46
0#
#47
1#
b1000 %
#48
0#
#49
1#
b1001 %
#50
0#
#51
1#
b1010 %
#52
0#
#53
1#
b1011 %
#54
0#
#55
1#
b1100 %
#56
0#
#57
1#
b1101 %
#58
0#
#59
1#
b1110 %
#60
0#
#61
1#
b1111 %
#62
0#
#63
1#
b0000 %
#64
0#
#65
1#
b0001 %
#66
0#
#67
1#
b0010 %
#68
0#
#69
1#
b0011 %
#70
0#
#71
1#
b0100 %
#72
0#
#73
1#
b0101 %
#74
0#
#75
1#
b0110 %
#76
0#
#77
1#
b0111 %
#78
0#
#79
1#
b1000 %
#80
0#
#81
1#
b1001 %
#82
0#
#83
1#
b1010 %
#84
0#
#85
1#
b1011 %
#86
0#
#87
1#
b1100 %
#88
0#
#89
1#
b1101 %
#90
0#
#91
1#
b1110 %
#92
0#
#93
1#
b1111 %
#94
0#
#95
1#
b0000 %
#96
0#
#97
1#
b0001 %
#98
0#
#99
1#
b0010 %
#100
0#
#101
1#
b0011 %
#102
0#
#103
1#
b0100 %
#104
0#
#105
1#
b0101 %
#106
0#
#107
1#
b0110 %
#108
0#
#109
1#
b0111 %
#110
0#
#111
1#
b1000 %
#112
0#
#113
1#
b1001 %
#114
0#
#115
1#
b1010 %
#116
0#
#117
1#
b1011 %
#118
0#
#119
1#
b1100 %
#120
0#
#121
1#
b1101 %
#122
0#
#123
1#
b1110 %
#124
0#
#125
1#
b1111 %
#126
0#
#127
1#
b0000 %
#128
0#
#129
1#
b0001 %
#130
0#
#131
1#
b0010 %
#132
0#
#133
1#
b0011 %
#134
0#
#135
1#
b0100 %
#136
0#
#137
1#
b0101 %
#138
0#
#139
1#
b0110 %
#140
0#
#141
1#
b0111 %
#142
0#
#143
1#
b1000 %
#144
0#
#145
1#
b1001 %
#146
0#
#147
1#
b1010 %
#148
0#
#149
1#
b1011 %
#150
0#
#151
1#
b1100 %
#152
0#
#153
1#
b1101 %
#154
0#
#155
1#
b1110 %
#156
0#
#157
1#
b1111 %
#158
0#
#159
1#
b0000 %
#160
0#
#161
1#
b0001 %
#162
0#
#163
1#
b0010 %
#164
0#
#165
1#
b0011 %
#166
0#
#167
1#
b0100 %
#168
0#
#169
1#
b0101 %
#170
0#
#171
1#
b0110 %
#172
0#
#173
1#
b0111 %
#174
0#
#175
1#
b1000 %
#176
0#
#177
1#
b1001 %
#178
0#
#179
1#
b1010 %
#180
0#
#181
1#
b1011 %
#182
0#
#183
1#
b1100 %
#184
0#
#185
1#
b1101 %
#186
0#
#187
1#
b1110 %
#188
0#
#189
1#
b1111 %
#190
0#
#191
1#
b0000 %
#192
0#
#193
1#
b0001 %
#194
0#
#195
1#
b0010 %
#196
0#
#197
1#
b0011 %
#198
0#
#199
1#
b0100 %
