projects/cpu/build_test/top.vcd
$version Generated by VerilatedVcd $end
$timescale 1ps $end

 $scope module TOP $end
  $var wire  1 j clk $end
  $var wire 32 l inst [31:0] $end
  $var wire 64 m inst_addr [63:0] $end
  $var wire  1 o inst_ena $end
  $var wire  1 k rst $end
  $scope module rvcpu $end
   $var wire  1 j clk $end
   $var wire 32 l inst [31:0] $end
   $var wire 64 m inst_addr [63:0] $end
   $var wire  1 o inst_ena $end
   $var wire  8 & inst_opcode [7:0] $end
   $var wire  5 % inst_type [4:0] $end
   $var wire  5 % inst_type_o [4:0] $end
   $var wire 64 q op1 [63:0] $end
   $var wire 64 s op2 [63:0] $end
   $var wire 64 u r_data1 [63:0] $end
   $var wire 64 "! r_data2 [63:0] $end
   $var wire 64 w rd_data [63:0] $end
   $var wire  5 $ rd_w_addr [4:0] $end
   $var wire  1 # rd_w_ena $end
   $var wire  5 p rs1_r_addr [4:0] $end
   $var wire  1 # rs1_r_ena $end
   $var wire  5 !! rs2_r_addr [4:0] $end
   $var wire  1 ~ rs2_r_ena $end
   $var wire  1 k rst $end
   $scope module Exe_stage $end
    $var wire  8 & inst_opcode [7:0] $end
    $var wire  5 % inst_type_i [4:0] $end
    $var wire  5 % inst_type_o [4:0] $end
    $var wire 64 q op1 [63:0] $end
    $var wire 64 s op2 [63:0] $end
    $var wire 64 w rd_data [63:0] $end
    $var wire  1 k rst $end
   $upscope $end
   $scope module Id_stage $end
    $var wire  3 { func3 [2:0] $end
    $var wire 12 } imm [11:0] $end
    $var wire 32 l inst [31:0] $end
    $var wire  1 ' inst_addi $end
    $var wire  8 & inst_opcode [7:0] $end
    $var wire  5 % inst_type [4:0] $end
    $var wire 64 q op1 [63:0] $end
    $var wire 64 s op2 [63:0] $end
    $var wire  7 y opcode [6:0] $end
    $var wire  5 z rd [4:0] $end
    $var wire  5 $ rd_w_addr [4:0] $end
    $var wire  1 # rd_w_ena $end
    $var wire  5 | rs1 [4:0] $end
    $var wire 64 u rs1_data [63:0] $end
    $var wire  5 p rs1_r_addr [4:0] $end
    $var wire  1 # rs1_r_ena $end
    $var wire 64 "! rs2_data [63:0] $end
    $var wire  5 !! rs2_r_addr [4:0] $end
    $var wire  1 ~ rs2_r_ena $end
    $var wire  1 k rst $end
   $upscope $end
   $scope module If_stage $end
    $var wire  1 j clk $end
    $var wire 64 m inst_addr [63:0] $end
    $var wire  1 o inst_ena $end
    $var wire 64 ( pc [63:0] $end
    $var wire  1 k rst $end
   $upscope $end
   $scope module Regfile $end
    $var wire  1 j clk $end
    $var wire  5 p r_addr1 [4:0] $end
    $var wire  5 !! r_addr2 [4:0] $end
    $var wire 64 u r_data1 [63:0] $end
    $var wire 64 "! r_data2 [63:0] $end
    $var wire  1 # r_ena1 $end
    $var wire  1 ~ r_ena2 $end
    $var wire 64 * regs[0] [63:0] $end
    $var wire 64 > regs[10] [63:0] $end
    $var wire 64 @ regs[11] [63:0] $end
    $var wire 64 B regs[12] [63:0] $end
    $var wire 64 D regs[13] [63:0] $end
    $var wire 64 F regs[14] [63:0] $end
    $var wire 64 H regs[15] [63:0] $end
    $var wire 64 J regs[16] [63:0] $end
    $var wire 64 L regs[17] [63:0] $end
    $var wire 64 N regs[18] [63:0] $end
    $var wire 64 P regs[19] [63:0] $end
    $var wire 64 , regs[1] [63:0] $end
    $var wire 64 R regs[20] [63:0] $end
    $var wire 64 T regs[21] [63:0] $end
    $var wire 64 V regs[22] [63:0] $end
    $var wire 64 X regs[23] [63:0] $end
    $var wire 64 Z regs[24] [63:0] $end
    $var wire 64 \ regs[25] [63:0] $end
    $var wire 64 ^ regs[26] [63:0] $end
    $var wire 64 ` regs[27] [63:0] $end
    $var wire 64 b regs[28] [63:0] $end
    $var wire 64 d regs[29] [63:0] $end
    $var wire 64 . regs[2] [63:0] $end
    $var wire 64 f regs[30] [63:0] $end
    $var wire 64 h regs[31] [63:0] $end
    $var wire 64 0 regs[3] [63:0] $end
    $var wire 64 2 regs[4] [63:0] $end
    $var wire 64 4 regs[5] [63:0] $end
    $var wire 64 6 regs[6] [63:0] $end
    $var wire 64 8 regs[7] [63:0] $end
    $var wire 64 : regs[8] [63:0] $end
    $var wire 64 < regs[9] [63:0] $end
    $var wire  1 k rst $end
    $var wire  5 $ w_addr [4:0] $end
    $var wire 64 w w_data [63:0] $end
    $var wire  1 # w_ena $end
   $upscope $end
  $upscope $end
 $upscope $end
$enddefinitions $end


#0
0#
b00000 $
b00000 %
b00000000 &
0'
b0000000000000000000000000000000000000000000000000000000000000000 (
b0000000000000000000000000000000000000000000000000000000000000000 *
b0000000000000000000000000000000000000000000000000000000000000000 ,
b0000000000000000000000000000000000000000000000000000000000000000 .
b0000000000000000000000000000000000000000000000000000000000000000 0
b0000000000000000000000000000000000000000000000000000000000000000 2
b0000000000000000000000000000000000000000000000000000000000000000 4
b0000000000000000000000000000000000000000000000000000000000000000 6
b0000000000000000000000000000000000000000000000000000000000000000 8
b0000000000000000000000000000000000000000000000000000000000000000 :
b0000000000000000000000000000000000000000000000000000000000000000 <
b0000000000000000000000000000000000000000000000000000000000000000 >
b0000000000000000000000000000000000000000000000000000000000000000 @
b0000000000000000000000000000000000000000000000000000000000000000 B
b0000000000000000000000000000000000000000000000000000000000000000 D
b0000000000000000000000000000000000000000000000000000000000000000 F
b0000000000000000000000000000000000000000000000000000000000000000 H
b0000000000000000000000000000000000000000000000000000000000000000 J
b0000000000000000000000000000000000000000000000000000000000000000 L
b0000000000000000000000000000000000000000000000000000000000000000 N
b0000000000000000000000000000000000000000000000000000000000000000 P
b0000000000000000000000000000000000000000000000000000000000000000 R
b0000000000000000000000000000000000000000000000000000000000000000 T
b0000000000000000000000000000000000000000000000000000000000000000 V
b0000000000000000000000000000000000000000000000000000000000000000 X
b0000000000000000000000000000000000000000000000000000000000000000 Z
b0000000000000000000000000000000000000000000000000000000000000000 \
b0000000000000000000000000000000000000000000000000000000000000000 ^
b0000000000000000000000000000000000000000000000000000000000000000 `
b0000000000000000000000000000000000000000000000000000000000000000 b
b0000000000000000000000000000000000000000000000000000000000000000 d
b0000000000000000000000000000000000000000000000000000000000000000 f
b0000000000000000000000000000000000000000000000000000000000000000 h
0j
1k
b00000000000000000000000000000000 l
b0000000000000000000000000000000000000000000000000000000000000000 m
0o
b00000 p
b0000000000000000000000000000000000000000000000000000000000000000 q
b0000000000000000000000000000000000000000000000000000000000000000 s
b0000000000000000000000000000000000000000000000000000000000000000 u
b0000000000000000000000000000000000000000000000000000000000000000 w
b0000000 y
b00000 z
b000 {
b00000 |
b000000000000 }
0~
b00000 !!
b0000000000000000000000000000000000000000000000000000000000000000 "!
#1
#2
#3
#4
#5
1j
#6
#7
#8
#9
#10
0j
0k
1o
#11
#12
#13
#14
#15
1#
b00001 $
b10000 %
b00010001 &
1'
b0000000000000000000000000000000000000000000000000000000000000100 (
b0000000000000000000000000000000000000000000000000000000000000001 ,
1j
b00000000000100000000000010010011 l
b0000000000000000000000000000000000000000000000000000000000000100 m
b0000000000000000000000000000000000000000000000000000000000000001 s
b0000000000000000000000000000000000000000000000000000000000000001 w
b0010011 y
b00001 z
b000000000001 }
#16
#17
#18
#19
#20
0j
#21
#22
#23
#24
#25
b0000000000000000000000000000000000000000000000000000000000001000 (
b0000000000000000000000000000000000000000000000000000000000000010 ,
1j
b00000000001000000000000010010011 l
b0000000000000000000000000000000000000000000000000000000000001000 m
b0000000000000000000000000000000000000000000000000000000000000010 s
b0000000000000000000000000000000000000000000000000000000000000010 w
b000000000010 }
#26
#27
#28
#29
#30
0j
#31
#32
#33
#34
#35
b0000000000000000000000000000000000000000000000000000000000001100 (
b0000000000000000000000000000000000000000000000000000000000000011 ,
1j
b00000000000100001000000010010011 l
b0000000000000000000000000000000000000000000000000000000000001100 m
b00001 p
b0000000000000000000000000000000000000000000000000000000000000011 q
b0000000000000000000000000000000000000000000000000000000000000001 s
b0000000000000000000000000000000000000000000000000000000000000011 u
b0000000000000000000000000000000000000000000000000000000000000100 w
b00001 |
b000000000001 }
#36
#37
#38
#39
#40
0j
#41
#42
#43
#44
#45
0#
b00000 $
b00000 %
b00000000 &
0'
b0000000000000000000000000000000000000000000000000000000000010000 (
1j
b00000000000000000000000000000000 l
b0000000000000000000000000000000000000000000000000000000000010000 m
b00000 p
b0000000000000000000000000000000000000000000000000000000000000000 q
b0000000000000000000000000000000000000000000000000000000000000000 s
b0000000000000000000000000000000000000000000000000000000000000000 u
b0000000000000000000000000000000000000000000000000000000000000000 w
b0000000 y
b00000 z
b00000 |
b000000000000 }
#46
#47
#48
#49
#50
0j
#51
#52
#53
#54
#55
b0000000000000000000000000000000000000000000000000000000000010100 (
1j
b0000000000000000000000000000000000000000000000000000000000010100 m
#56
#57
#58
#59
#60
0j
#61
#62
#63
#64
#65
b0000000000000000000000000000000000000000000000000000000000011000 (
1j
b0000000000000000000000000000000000000000000000000000000000011000 m
#66
#67
#68
#69
#70
0j
#71
#72
#73
#74
#75
b0000000000000000000000000000000000000000000000000000000000011100 (
1j
b0000000000000000000000000000000000000000000000000000000000011100 m
#76
#77
#78
#79
#80
0j
#81
#82
#83
#84
#85
b0000000000000000000000000000000000000000000000000000000000100000 (
1j
b0000000000000000000000000000000000000000000000000000000000100000 m
#86
#87
#88
#89
#90
0j
#91
#92
#93
#94
#95
b0000000000000000000000000000000000000000000000000000000000100100 (
1j
b0000000000000000000000000000000000000000000000000000000000100100 m
#96
#97
#98
#99
#100
0j
#101
#102
#103
#104
#105
b0000000000000000000000000000000000000000000000000000000000101000 (
1j
b0000000000000000000000000000000000000000000000000000000000101000 m
#106
#107
#108
#109
#110
0j
#111
#112
#113
#114
#115
b0000000000000000000000000000000000000000000000000000000000101100 (
1j
b0000000000000000000000000000000000000000000000000000000000101100 m
#116
#117
#118
#119
#120
0j
#121
#122
#123
#124
#125
b0000000000000000000000000000000000000000000000000000000000110000 (
1j
b0000000000000000000000000000000000000000000000000000000000110000 m
#126
#127
#128
#129
#130
0j
#131
#132
#133
#134
#135
b0000000000000000000000000000000000000000000000000000000000110100 (
1j
b0000000000000000000000000000000000000000000000000000000000110100 m
#136
#137
#138
#139
#140
0j
#141
#142
#143
#144
#145
b0000000000000000000000000000000000000000000000000000000000111000 (
1j
b0000000000000000000000000000000000000000000000000000000000111000 m
#146
#147
#148
#149
#150
0j
#151
#152
#153
#154
#155
b0000000000000000000000000000000000000000000000000000000000111100 (
1j
b0000000000000000000000000000000000000000000000000000000000111100 m
#156
#157
#158
#159
#160
0j
#161
#162
#163
#164
#165
b0000000000000000000000000000000000000000000000000000000001000000 (
1j
b0000000000000000000000000000000000000000000000000000000001000000 m
#166
#167
#168
#169
#170
0j
#171
#172
#173
#174
#175
b0000000000000000000000000000000000000000000000000000000001000100 (
1j
b0000000000000000000000000000000000000000000000000000000001000100 m
#176
#177
#178
#179
#180
0j
#181
#182
#183
#184
#185
b0000000000000000000000000000000000000000000000000000000001001000 (
1j
b0000000000000000000000000000000000000000000000000000000001001000 m
#186
#187
#188
#189
#190
0j
#191
#192
#193
#194
#195
b0000000000000000000000000000000000000000000000000000000001001100 (
1j
b0000000000000000000000000000000000000000000000000000000001001100 m
#196
#197
#198
#199
#200
0j
#201
#202
#203
#204
#205
b0000000000000000000000000000000000000000000000000000000001010000 (
1j
b0000000000000000000000000000000000000000000000000000000001010000 m
#206
#207
#208
#209
#210
0j
#211
#212
#213
#214
#215
b0000000000000000000000000000000000000000000000000000000001010100 (
1j
b0000000000000000000000000000000000000000000000000000000001010100 m
#216
#217
#218
#219
#220
0j
#221
#222
#223
#224
#225
b0000000000000000000000000000000000000000000000000000000001011000 (
1j
b0000000000000000000000000000000000000000000000000000000001011000 m
#226
#227
#228
#229
#230
0j
#231
#232
#233
#234
#235
b0000000000000000000000000000000000000000000000000000000001011100 (
1j
b0000000000000000000000000000000000000000000000000000000001011100 m
#236
#237
#238
#239
#240
0j
#241
#242
#243
#244
#245
b0000000000000000000000000000000000000000000000000000000001100000 (
1j
b0000000000000000000000000000000000000000000000000000000001100000 m
#246
#247
#248
#249
#250
0j
#251
#252
#253
#254
#255
b0000000000000000000000000000000000000000000000000000000001100100 (
1j
b0000000000000000000000000000000000000000000000000000000001100100 m
#256
#257
#258
#259
#260
0j
#261
#262
#263
#264
#265
b0000000000000000000000000000000000000000000000000000000001101000 (
1j
b0000000000000000000000000000000000000000000000000000000001101000 m
#266
#267
#268
#269
#270
0j
#271
#272
#273
#274
#275
b0000000000000000000000000000000000000000000000000000000001101100 (
1j
b0000000000000000000000000000000000000000000000000000000001101100 m
#276
#277
#278
#279
#280
0j
#281
#282
#283
#284
#285
b0000000000000000000000000000000000000000000000000000000001110000 (
1j
b0000000000000000000000000000000000000000000000000000000001110000 m
#286
#287
#288
#289
#290
0j
#291
#292
#293
#294
#295
b0000000000000000000000000000000000000000000000000000000001110100 (
1j
b0000000000000000000000000000000000000000000000000000000001110100 m
#296
#297
#298
#299
#300
0j
#301
#302
#303
#304
#305
b0000000000000000000000000000000000000000000000000000000001111000 (
1j
b0000000000000000000000000000000000000000000000000000000001111000 m
#306
#307
#308
#309
#310
0j
#311
#312
#313
#314
#315
b0000000000000000000000000000000000000000000000000000000001111100 (
1j
b0000000000000000000000000000000000000000000000000000000001111100 m
#316
#317
#318
#319
#320
0j
#321
#322
#323
#324
#325
b0000000000000000000000000000000000000000000000000000000010000000 (
1j
b0000000000000000000000000000000000000000000000000000000010000000 m
#326
#327
#328
#329
#330
0j
#331
#332
#333
#334
#335
b0000000000000000000000000000000000000000000000000000000010000100 (
1j
b0000000000000000000000000000000000000000000000000000000010000100 m
#336
#337
#338
#339
#340
0j
#341
#342
#343
#344
#345
b0000000000000000000000000000000000000000000000000000000010001000 (
1j
b0000000000000000000000000000000000000000000000000000000010001000 m
#346
#347
#348
#349
#350
0j
#351
#352
#353
#354
#355
b0000000000000000000000000000000000000000000000000000000010001100 (
1j
b0000000000000000000000000000000000000000000000000000000010001100 m
#356
#357
#358
#359
#360
0j
#361
#362
#363
#364
#365
b0000000000000000000000000000000000000000000000000000000010010000 (
1j
b0000000000000000000000000000000000000000000000000000000010010000 m
#366
#367
#368
#369
#370
0j
#371
#372
#373
#374
#375
b0000000000000000000000000000000000000000000000000000000010010100 (
1j
b0000000000000000000000000000000000000000000000000000000010010100 m
#376
#377
#378
#379
#380
0j
#381
#382
#383
#384
#385
b0000000000000000000000000000000000000000000000000000000010011000 (
1j
b0000000000000000000000000000000000000000000000000000000010011000 m
#386
#387
#388
#389
#390
0j
#391
#392
#393
#394
#395
b0000000000000000000000000000000000000000000000000000000010011100 (
1j
b0000000000000000000000000000000000000000000000000000000010011100 m
#396
#397
#398
#399
#400
0j
#401
#402
#403
#404
#405
b0000000000000000000000000000000000000000000000000000000010100000 (
1j
b0000000000000000000000000000000000000000000000000000000010100000 m
#406
#407
#408
#409
#410
0j
#411
#412
#413
#414
#415
b0000000000000000000000000000000000000000000000000000000010100100 (
1j
b0000000000000000000000000000000000000000000000000000000010100100 m
#416
#417
#418
#419
#420
0j
#421
#422
#423
#424
#425
b0000000000000000000000000000000000000000000000000000000010101000 (
1j
b0000000000000000000000000000000000000000000000000000000010101000 m
#426
#427
#428
#429
#430
0j
#431
#432
#433
#434
#435
b0000000000000000000000000000000000000000000000000000000010101100 (
1j
b0000000000000000000000000000000000000000000000000000000010101100 m
#436
#437
#438
#439
#440
0j
#441
#442
#443
#444
#445
b0000000000000000000000000000000000000000000000000000000010110000 (
1j
b0000000000000000000000000000000000000000000000000000000010110000 m
#446
#447
#448
#449
#450
0j
#451
#452
#453
#454
#455
b0000000000000000000000000000000000000000000000000000000010110100 (
1j
b0000000000000000000000000000000000000000000000000000000010110100 m
#456
#457
#458
#459
#460
0j
#461
#462
#463
#464
#465
b0000000000000000000000000000000000000000000000000000000010111000 (
1j
b0000000000000000000000000000000000000000000000000000000010111000 m
#466
#467
#468
#469
#470
0j
#471
#472
#473
#474
#475
b0000000000000000000000000000000000000000000000000000000010111100 (
1j
b0000000000000000000000000000000000000000000000000000000010111100 m
#476
#477
#478
#479
#480
0j
#481
#482
#483
#484
#485
b0000000000000000000000000000000000000000000000000000000011000000 (
1j
b0000000000000000000000000000000000000000000000000000000011000000 m
#486
#487
#488
#489
#490
0j
#491
#492
#493
#494
#495
b0000000000000000000000000000000000000000000000000000000011000100 (
1j
b0000000000000000000000000000000000000000000000000000000011000100 m
#496
#497
#498
#499
#500
0j
#501
#502
#503
#504
#505
b0000000000000000000000000000000000000000000000000000000011001000 (
1j
b0000000000000000000000000000000000000000000000000000000011001000 m
#506
#507
#508
#509
#510
0j
#511
#512
#513
#514
#515
b0000000000000000000000000000000000000000000000000000000011001100 (
1j
b0000000000000000000000000000000000000000000000000000000011001100 m
#516
#517
#518
#519
#520
0j
#521
#522
#523
#524
#525
b0000000000000000000000000000000000000000000000000000000011010000 (
1j
b0000000000000000000000000000000000000000000000000000000011010000 m
#526
#527
#528
#529
#530
0j
#531
#532
#533
#534
#535
b0000000000000000000000000000000000000000000000000000000011010100 (
1j
b0000000000000000000000000000000000000000000000000000000011010100 m
#536
#537
#538
#539
#540
0j
#541
#542
#543
#544
#545
b0000000000000000000000000000000000000000000000000000000011011000 (
1j
b0000000000000000000000000000000000000000000000000000000011011000 m
#546
#547
#548
#549
#550
0j
#551
#552
#553
#554
#555
b0000000000000000000000000000000000000000000000000000000011011100 (
1j
b0000000000000000000000000000000000000000000000000000000011011100 m
#556
#557
#558
#559
#560
0j
#561
#562
#563
#564
#565
b0000000000000000000000000000000000000000000000000000000011100000 (
1j
b0000000000000000000000000000000000000000000000000000000011100000 m
#566
#567
#568
#569
#570
0j
#571
#572
#573
#574
#575
b0000000000000000000000000000000000000000000000000000000011100100 (
1j
b0000000000000000000000000000000000000000000000000000000011100100 m
#576
#577
#578
#579
#580
0j
#581
#582
#583
#584
#585
b0000000000000000000000000000000000000000000000000000000011101000 (
1j
b0000000000000000000000000000000000000000000000000000000011101000 m
#586
#587
#588
#589
#590
0j
#591
#592
#593
#594
#595
b0000000000000000000000000000000000000000000000000000000011101100 (
1j
b0000000000000000000000000000000000000000000000000000000011101100 m
#596
#597
#598
#599
#600
0j
#601
#602
#603
#604
#605
b0000000000000000000000000000000000000000000000000000000011110000 (
1j
b0000000000000000000000000000000000000000000000000000000011110000 m
#606
#607
#608
#609
#610
0j
#611
#612
#613
#614
#615
b0000000000000000000000000000000000000000000000000000000011110100 (
1j
b0000000000000000000000000000000000000000000000000000000011110100 m
#616
#617
#618
#619
#620
0j
#621
#622
#623
#624
#625
b0000000000000000000000000000000000000000000000000000000011111000 (
1j
b0000000000000000000000000000000000000000000000000000000011111000 m
#626
#627
#628
#629
#630
0j
#631
#632
#633
#634
#635
b0000000000000000000000000000000000000000000000000000000011111100 (
1j
b0000000000000000000000000000000000000000000000000000000011111100 m
#636
#637
#638
#639
#640
0j
#641
#642
#643
#644
#645
b0000000000000000000000000000000000000000000000000000000100000000 (
1j
b0000000000000000000000000000000000000000000000000000000100000000 m
#646
#647
#648
#649
#650
0j
#651
#652
#653
#654
#655
b0000000000000000000000000000000000000000000000000000000100000100 (
1j
b0000000000000000000000000000000000000000000000000000000100000100 m
#656
#657
#658
#659
#660
0j
#661
#662
#663
#664
#665
b0000000000000000000000000000000000000000000000000000000100001000 (
1j
b0000000000000000000000000000000000000000000000000000000100001000 m
#666
#667
#668
#669
#670
0j
#671
#672
#673
#674
#675
b0000000000000000000000000000000000000000000000000000000100001100 (
1j
b0000000000000000000000000000000000000000000000000000000100001100 m
#676
#677
#678
#679
#680
0j
#681
#682
#683
#684
#685
b0000000000000000000000000000000000000000000000000000000100010000 (
1j
b0000000000000000000000000000000000000000000000000000000100010000 m
#686
#687
#688
#689
#690
0j
#691
#692
#693
#694
#695
b0000000000000000000000000000000000000000000000000000000100010100 (
1j
b0000000000000000000000000000000000000000000000000000000100010100 m
#696
#697
#698
#699
#700
0j
#701
#702
#703
#704
#705
b0000000000000000000000000000000000000000000000000000000100011000 (
1j
b0000000000000000000000000000000000000000000000000000000100011000 m
#706
#707
#708
#709
#710
0j
#711
#712
#713
#714
#715
b0000000000000000000000000000000000000000000000000000000100011100 (
1j
b0000000000000000000000000000000000000000000000000000000100011100 m
#716
#717
#718
#719
#720
0j
#721
#722
#723
#724
#725
b0000000000000000000000000000000000000000000000000000000100100000 (
1j
b0000000000000000000000000000000000000000000000000000000100100000 m
#726
#727
#728
#729
#730
0j
#731
#732
#733
#734
#735
b0000000000000000000000000000000000000000000000000000000100100100 (
1j
b0000000000000000000000000000000000000000000000000000000100100100 m
#736
#737
#738
#739
#740
0j
#741
#742
#743
#744
#745
b0000000000000000000000000000000000000000000000000000000100101000 (
1j
b0000000000000000000000000000000000000000000000000000000100101000 m
#746
#747
#748
#749
#750
0j
#751
#752
#753
#754
#755
b0000000000000000000000000000000000000000000000000000000100101100 (
1j
b0000000000000000000000000000000000000000000000000000000100101100 m
#756
#757
#758
#759
#760
0j
#761
#762
#763
#764
#765
b0000000000000000000000000000000000000000000000000000000100110000 (
1j
b0000000000000000000000000000000000000000000000000000000100110000 m
#766
#767
#768
#769
#770
0j
#771
#772
#773
#774
#775
b0000000000000000000000000000000000000000000000000000000100110100 (
1j
b0000000000000000000000000000000000000000000000000000000100110100 m
#776
#777
#778
#779
#780
0j
#781
#782
#783
#784
#785
b0000000000000000000000000000000000000000000000000000000100111000 (
1j
b0000000000000000000000000000000000000000000000000000000100111000 m
#786
#787
#788
#789
#790
0j
#791
#792
#793
#794
#795
b0000000000000000000000000000000000000000000000000000000100111100 (
1j
b0000000000000000000000000000000000000000000000000000000100111100 m
#796
#797
#798
#799
#800
0j
#801
#802
#803
#804
#805
b0000000000000000000000000000000000000000000000000000000101000000 (
1j
b0000000000000000000000000000000000000000000000000000000101000000 m
#806
#807
#808
#809
#810
0j
#811
#812
#813
#814
#815
b0000000000000000000000000000000000000000000000000000000101000100 (
1j
b0000000000000000000000000000000000000000000000000000000101000100 m
#816
#817
#818
#819
#820
0j
#821
#822
#823
#824
#825
b0000000000000000000000000000000000000000000000000000000101001000 (
1j
b0000000000000000000000000000000000000000000000000000000101001000 m
#826
#827
#828
#829
#830
0j
#831
#832
#833
#834
#835
b0000000000000000000000000000000000000000000000000000000101001100 (
1j
b0000000000000000000000000000000000000000000000000000000101001100 m
#836
#837
#838
#839
#840
0j
#841
#842
#843
#844
#845
b0000000000000000000000000000000000000000000000000000000101010000 (
1j
b0000000000000000000000000000000000000000000000000000000101010000 m
#846
#847
#848
#849
#850
0j
#851
#852
#853
#854
#855
b0000000000000000000000000000000000000000000000000000000101010100 (
1j
b0000000000000000000000000000000000000000000000000000000101010100 m
#856
#857
#858
#859
#860
0j
#861
#862
#863
#864
#865
b0000000000000000000000000000000000000000000000000000000101011000 (
1j
b0000000000000000000000000000000000000000000000000000000101011000 m
#866
#867
#868
#869
#870
0j
#871
#872
#873
#874
#875
b0000000000000000000000000000000000000000000000000000000101011100 (
1j
b0000000000000000000000000000000000000000000000000000000101011100 m
#876
#877
#878
#879
#880
0j
#881
#882
#883
#884
#885
b0000000000000000000000000000000000000000000000000000000101100000 (
1j
b0000000000000000000000000000000000000000000000000000000101100000 m
#886
#887
#888
#889
#890
0j
#891
#892
#893
#894
#895
b0000000000000000000000000000000000000000000000000000000101100100 (
1j
b0000000000000000000000000000000000000000000000000000000101100100 m
#896
#897
#898
#899
#900
0j
#901
#902
#903
#904
#905
b0000000000000000000000000000000000000000000000000000000101101000 (
1j
b0000000000000000000000000000000000000000000000000000000101101000 m
#906
#907
#908
#909
#910
0j
#911
#912
#913
#914
#915
b0000000000000000000000000000000000000000000000000000000101101100 (
1j
b0000000000000000000000000000000000000000000000000000000101101100 m
#916
#917
#918
#919
#920
0j
#921
#922
#923
#924
#925
b0000000000000000000000000000000000000000000000000000000101110000 (
1j
b0000000000000000000000000000000000000000000000000000000101110000 m
#926
#927
#928
#929
#930
0j
#931
#932
#933
#934
#935
b0000000000000000000000000000000000000000000000000000000101110100 (
1j
b0000000000000000000000000000000000000000000000000000000101110100 m
#936
#937
#938
#939
#940
0j
#941
#942
#943
#944
#945
b0000000000000000000000000000000000000000000000000000000101111000 (
1j
b0000000000000000000000000000000000000000000000000000000101111000 m
#946
#947
#948
#949
#950
0j
#951
#952
#953
#954
#955
b0000000000000000000000000000000000000000000000000000000101111100 (
1j
b0000000000000000000000000000000000000000000000000000000101111100 m
#956
#957
#958
#959
#960
0j
#961
#962
#963
#964
#965
b0000000000000000000000000000000000000000000000000000000110000000 (
1j
b0000000000000000000000000000000000000000000000000000000110000000 m
#966
#967
#968
#969
#970
0j
#971
#972
#973
#974
#975
b0000000000000000000000000000000000000000000000000000000110000100 (
1j
b0000000000000000000000000000000000000000000000000000000110000100 m
#976
#977
#978
#979
#980
0j
#981
#982
#983
#984
#985
b0000000000000000000000000000000000000000000000000000000110001000 (
1j
b0000000000000000000000000000000000000000000000000000000110001000 m
#986
#987
#988
#989
#990
0j
#991
#992
#993
#994
#995
b0000000000000000000000000000000000000000000000000000000110001100 (
1j
b0000000000000000000000000000000000000000000000000000000110001100 m
